module local/ant1/pawnserver

go 1.17

require (
	github.com/RichardKnop/machinery/v2 v2.0.11
	github.com/go-rod/rod v0.101.8
)

require (
	cloud.google.com/go v0.76.0 // indirect
	cloud.google.com/go/pubsub v1.10.0 // indirect
	github.com/RichardKnop/logging v0.0.0-20190827224416-1a693bdd4fae // indirect
	github.com/aws/aws-sdk-go v1.37.16 // indirect
	github.com/cespare/xxhash/v2 v2.1.1 // indirect
	github.com/dgryski/go-rendezvous v0.0.0-20200823014737-9f7001d12a5f // indirect
	github.com/go-redis/redis/v8 v8.6.0 // indirect
	github.com/go-redsync/redsync/v4 v4.0.4 // indirect
	github.com/go-stack/stack v1.8.0 // indirect
	github.com/golang/groupcache v0.0.0-20200121045136-8c9f03a8e57e // indirect
	github.com/golang/protobuf v1.4.3 // indirect
	github.com/golang/snappy v0.0.2 // indirect
	github.com/gomodule/redigo v2.0.0+incompatible // indirect
	github.com/google/go-cmp v0.5.4 // indirect
	github.com/google/uuid v1.2.0 // indirect
	github.com/googleapis/gax-go/v2 v2.0.5 // indirect
	github.com/hashicorp/errwrap v1.1.0 // indirect
	github.com/hashicorp/go-multierror v1.1.0 // indirect
	github.com/jmespath/go-jmespath v0.4.0 // indirect
	github.com/jstemmer/go-junit-report v0.9.1 // indirect
	github.com/kelseyhightower/envconfig v1.4.0 // indirect
	github.com/klauspost/compress v1.11.7 // indirect
	github.com/opentracing/opentracing-go v1.2.0 // indirect
	github.com/pkg/errors v0.9.1 // indirect
	github.com/robfig/cron/v3 v3.0.1 // indirect
	github.com/streadway/amqp v1.0.0 // indirect
	github.com/xdg/scram v0.0.0-20180814205039-7eeb5667e42c // indirect
	github.com/xdg/stringprep v1.0.0 // indirect
	github.com/ysmood/goob v0.3.0 // indirect
	github.com/ysmood/gson v0.6.4 // indirect
	github.com/ysmood/leakless v0.7.0 // indirect
	go.mongodb.org/mongo-driver v1.4.6 // indirect
	go.opencensus.io v0.22.6 // indirect
	go.opentelemetry.io/otel v0.17.0 // indirect
	go.opentelemetry.io/otel/metric v0.17.0 // indirect
	go.opentelemetry.io/otel/trace v0.17.0 // indirect
	golang.org/x/crypto v0.0.0-20201221181555-eec23a3978ad // indirect
	golang.org/x/lint v0.0.0-20201208152925-83fdc39ff7b5 // indirect
	golang.org/x/mod v0.4.1 // indirect
	golang.org/x/net v0.0.0-20210119194325-5f4716e94777 // indirect
	golang.org/x/oauth2 v0.0.0-20210201163806-010130855d6c // indirect
	golang.org/x/sync v0.0.0-20201207232520-09787c993a3a // indirect
	golang.org/x/sys v0.0.0-20210124154548-22da62e12c0c // indirect
	golang.org/x/text v0.3.5 // indirect
	golang.org/x/tools v0.1.0 // indirect
	golang.org/x/xerrors v0.0.0-20200804184101-5ec99f83aff1 // indirect
	google.golang.org/api v0.39.0 // indirect
	google.golang.org/appengine v1.6.7 // indirect
	google.golang.org/genproto v0.0.0-20210207032614-bba0dbe2a9ea // indirect
	google.golang.org/grpc v1.35.0 // indirect
	google.golang.org/protobuf v1.25.0 // indirect
	gopkg.in/yaml.v2 v2.4.0 // indirect
)
